<?xml version="1.0" encoding="UTF-8"?>
<svg width="40px" height="40px" viewBox="0 0 40 40" version="1.1" xmlns="http://www.w3.org/2000/svg" xmlns:xlink="http://www.w3.org/1999/xlink">
    <title>__file_uload_img@3x</title>
    <g id="Design" stroke="none" stroke-width="1" fill="none" fill-rule="evenodd">
        <g id="Profile---Main-KYC" transform="translate(-167.000000, -1121.000000)" fill="#929EB5" fill-rule="nonzero">
            <g id="__file_uload_img-2" transform="translate(167.000000, 1121.000000)">
                <g id="__file_uload_img" transform="translate(2.000000, 0.000000)">
                    <path d="M27.2581273,17.3136982 L27.2581273,9.74437344 C27.250903,9.5293137 27.164768,9.32481245 27.0163934,9.16921367 L18.530703,0.258405113 C18.3712142,0.0933592665 18.1517088,0 17.9222006,0 L4.46790775,0 C2.01444846,0.00777993887 0,2.02889692 0,4.48235621 C0,4.49124757 0,4.50069464 0,4.509586 L0,29.9527647 C0,29.9599889 0,29.9677688 0,29.9749931 C0,32.4184496 2.01055849,34.4290081 4.454015,34.4290081 C4.45846068,34.4290081 4.46346207,34.4290081 4.46790775,34.4290081 L15.08808,34.4290081 C17.1569881,37.8810781 20.8969158,40 24.921367,40 C31.2103362,40 36.385107,34.8252292 36.385107,28.5362601 C36.385107,23.1258683 32.5545985,18.4162267 27.2581273,17.3131425 L27.2581273,17.3136982 Z M18.7557655,2.92581273 L24.4512365,8.91914421 L20.7563212,8.91914421 C19.6582384,8.91191998 18.7579883,8.00833565 18.7557655,6.91025285 L18.7557655,2.92581273 Z M4.46790775,32.7596555 C4.4651292,32.7596555 4.46235065,32.7596555 4.4595721,32.7596555 C2.92747986,32.7596555 1.66712976,31.4993054 1.66712976,29.9672131 C1.66712976,29.9622117 1.66712976,29.957766 1.66712976,29.9527647 L1.66712976,4.509586 C1.66712976,4.50069464 1.66712976,4.49180328 1.66712976,4.48291192 C1.66712976,2.94359544 2.92859128,1.67546541 4.46790775,1.66712976 L17.0886357,1.66712976 L17.0886357,6.91025285 C17.08808,8.9241456 18.7424285,10.582384 20.7563212,10.586274 L25.5909975,10.586274 L25.5909975,17.0964157 C25.340928,17.08808 25.1408725,17.0630731 24.9241456,17.0630731 C22.128369,17.0741873 19.4281745,18.0922478 17.3220339,19.9305363 L6.73520422,19.9305363 C6.27785496,19.9305363 5.90163934,20.3067519 5.90163934,20.7641011 C5.90163934,21.2214504 6.27785496,21.597666 6.73520422,21.597666 L15.7710475,21.597666 C15.1869964,22.4012226 14.6946374,23.26813 14.3039733,24.1817171 L6.73520422,24.1817171 C6.27785496,24.1817171 5.90163934,24.5579328 5.90163934,25.015282 C5.90163934,25.4726313 6.27785496,25.8488469 6.73520422,25.8488469 L13.7627119,25.8488469 C13.2092248,28.1511531 13.3842734,30.569047 14.2628508,32.7674354 L4.46790775,32.7674354 L4.46790775,32.7596555 Z M24.9180328,38.3362045 C24.9169214,38.3362045 24.9163657,38.3362045 24.9152542,38.3362045 C19.542095,38.3362045 15.1203112,33.9144207 15.1203112,28.5412615 C15.1203112,23.1681023 19.542095,18.7463184 24.9152542,18.7463184 C30.2884134,18.7463184 34.7101973,23.1681023 34.7101973,28.5412615 C34.7101973,28.5412615 34.7101973,28.5418172 34.7101973,28.5418172 C34.7046402,33.9127535 30.2867463,38.3312031 24.9158099,38.3367602 L24.9180328,38.3362045 Z" id="Path_9182"></path>
                    <g id="Path_9183" transform="translate(5.901639, 15.754932)">
                        <path d="M0.833564879,1.66712976 L9.28035565,1.66712976 C9.73770492,1.66712976 10.1139205,1.29091414 10.1139205,0.833564879 C10.1139205,0.376215615 9.73770492,0 9.28035565,0 L0.833564879,0 C0.376215615,0 0,0.376215615 0,0.833564879 C0,1.29091414 0.376215615,1.66712976 0.833564879,1.66712976 Z" id="Path"></path>
                    </g>
                    <g id="Path_9184" transform="translate(19.184030, 22.123368)">
                        <path d="M6.32305493,0.266740761 C6.16634473,0.096693526 5.9457279,0 5.71455257,0 C5.48337724,0 5.2627604,0.096693526 5.10605021,0.266740761 L0.220804305,5.50986385 C-0.0892818297,5.84384551 -0.0703876925,6.37399278 0.262482549,6.68519033 C0.60257702,6.99638789 1.13716996,6.97804946 1.45448033,6.64351209 L4.90543893,2.95081967 L4.90543893,12.0527924 C4.90543893,12.5101417 5.28165454,12.8863573 5.73900381,12.8863573 C6.19635307,12.8863573 6.57256868,12.5101417 6.57256868,12.0527924 L6.57256868,2.95026396 L9.99852034,6.64295638 C10.1530077,6.78855238 10.3575089,6.86968602 10.5697901,6.86968602 C11.0271394,6.86968602 11.403355,6.49347041 11.403355,6.03612114 C11.403355,5.84384551 11.3372255,5.65768269 11.2155251,5.50875243 L6.32305493,0.266740761 Z" id="Path"></path>
                    </g>
                </g>
            </g>
        </g>
    </g>
</svg>