<?xml version="1.0" encoding="UTF-8"?>
<svg width="24px" height="24px" viewBox="0 0 24 24" version="1.1" xmlns="http://www.w3.org/2000/svg" xmlns:xlink="http://www.w3.org/1999/xlink">
    <title>switch_icon</title>
    <g id="switch_icon" stroke="none" stroke-width="1" fill="none" fill-rule="evenodd">
        <g id="switch" transform="translate(3.000000, 3.000000)">
            <circle id="Oval" stroke="#FFFFFF" stroke-width="2" cx="9" cy="9" r="9"></circle>
            <path d="M9,18 C13.9705627,18 18,13.9705627 18,9 C18,4.02943725 13.9705627,0 9,0 C9,2.39396449 9,16.5317165 9,18 Z" id="Oval" fill="#FFFFFF"></path>
        </g>
    </g>
</svg>